										

AAI Core Benefits


										<p><span style="font-size: 19px; color: #000000;"><strong</strong></span></p>
<span class="note"> 
<table style="height: 162px; background:#FFF3A3;" border="0" width="237">
<tbody>
<tr>
<td><span style="color: #000000;">* Medical Plan</span></td>

<td><span style="color: #000000;">* Vision Plan</span></td>
</tr>
<tr>
<td><span style="color: #000000;">* Dental Plan</span></td>
<td><span style="color: #000000;">* Paid Holidays</span></td>
</tr>
<tr>
<td><span style="color: #000000;">* 401(k) Plan</span></td>
<td><span style="color: #000000;">*Life Insurance<br></span></td>
</tr>
<tr>
<td><span style="color: #000000;">* Short-Term Disability</span></td>

<td><span style="color: #000000;">* Paid Vacations</span></td>
</tr>
</tbody>
</table>
</span>					